[gd_scene load_steps=7 format=2]

[ext_resource path="res://thirdparty/1bitpack_kenney_1.2/Tilesheet/colored-transparent.png" type="Texture" id=1]
[ext_resource path="res://door.gd" type="Script" id=2]

[sub_resource type="AtlasTexture" id=1]
flags = 4
atlas = ExtResource( 1 )
region = Rect2( 51, 153, 16, 16 )

[sub_resource type="SpriteFrames" id=2]
animations = [ {
"frames": [ SubResource( 1 ) ],
"loop": true,
"name": "default",
"speed": 5.0
} ]

[sub_resource type="RectangleShape2D" id=3]
extents = Vector2( 9, 9 )

[sub_resource type="RectangleShape2D" id=4]
extents = Vector2( 7, 7 )

[node name="door" type="Node2D"]
script = ExtResource( 2 )

[node name="AnimatedSprite" type="AnimatedSprite" parent="."]
frames = SubResource( 2 )

[node name="area" type="Area2D" parent="."]
collision_layer = 8
collision_mask = 2

[node name="CollisionShape2D" type="CollisionShape2D" parent="area"]
shape = SubResource( 3 )

[node name="static" type="StaticBody2D" parent="."]
collision_layer = 8
collision_mask = 0

[node name="CollisionShape2D" type="CollisionShape2D" parent="static"]
shape = SubResource( 4 )

[connection signal="body_entered" from="area" to="." method="_on_door_entered"]
